   [enerjc] *** EXPAX_RP: here0
   [enerjc] *** EXPAX_RP: here0
   [enerjc] *** EXPAX_RP: here0
   [enerjc] *** EXPAX_RP: here1
   [enerjc] *** EXPAX_RP: here4
   [enerjc] *** EXPAX_RP: here5
   [enerjc] *** EXPAX_RP: here6 = 50
   [enerjc] *** EXPAX_RP: here7 = 0
   [enerjc] *** EXPAX_RP: here8 = false
   [enerjc] *** EXPAX_RP: here10
   [enerjc] *** EXPAX_RP: here11
   [enerjc] *** EXPAX_RP: here13
   [enerjc] *** EXPAX_RP: here14
   [enerjc] *** EXPAX_RP: here0
   [enerjc] *** EXPAX_RP: here1
   [enerjc] *** EXPAX_RP: here4
   [enerjc] *** EXPAX_RP: here5
   [enerjc] *** EXPAX_RP: here6 = 42
   [enerjc] *** EXPAX_RP: here7 = 0
   [enerjc] *** EXPAX_RP: here8 = false
   [enerjc] *** EXPAX_RP: here10
   [enerjc] *** EXPAX_RP: here11
   [enerjc] *** EXPAX_RP: here13
   [enerjc] *** EXPAX_RP: here14
   [enerjc] *** EXPAX_RP: here0
   [enerjc] *** EXPAX_RP: here1
   [enerjc] *** EXPAX_RP: here4
   [enerjc] *** EXPAX_RP: here5
   [enerjc] *** EXPAX_RP: here6 = 49
   [enerjc] *** EXPAX_RP: here7 = 0
   [enerjc] *** EXPAX_RP: here8 = false
   [enerjc] *** EXPAX_RP: here10
   [enerjc] *** EXPAX_RP: here11
   [enerjc] *** EXPAX_RP: here13
   [enerjc] *** EXPAX_RP: here14
   [enerjc] *** EXPAX_RP: here0
   [enerjc] *** EXPAX_RP: here1
   [enerjc] *** EXPAX_RP: here4
   [enerjc] *** EXPAX_RP: here5
   [enerjc] *** EXPAX_RP: here6 = 16
   [enerjc] *** EXPAX_RP: here7 = 0
   [enerjc] *** EXPAX_RP: here8 = false
   [enerjc] *** EXPAX_RP: here10
   [enerjc] *** EXPAX_RP: here11
   [enerjc] *** EXPAX_RP: here13
   [enerjc] *** EXPAX_RP: here14
   [enerjc] *** EXPAX_RP: here0
   [enerjc] *** EXPAX_RP: here1
   [enerjc] *** EXPAX_RP: here4
   [enerjc] *** EXPAX_RP: here5
   [enerjc] *** EXPAX_RP: here6 = 50
   [enerjc] *** EXPAX_RP: here7 = 0
   [enerjc] *** EXPAX_RP: here8 = false
   [enerjc] *** EXPAX_RP: here10
   [enerjc] *** EXPAX_RP: here11
   [enerjc] *** EXPAX_RP: here13
   [enerjc] *** EXPAX_RP: here14
   [enerjc] *** EXPAX_RP: here0
   [enerjc] *** EXPAX_RP: here1
   [enerjc] *** EXPAX_RP: here4
   [enerjc] *** EXPAX_RP: here5
   [enerjc] *** EXPAX_RP: here6 = 90
   [enerjc] *** EXPAX_RP: here7 = 0
   [enerjc] *** EXPAX_RP: here8 = false
   [enerjc] *** EXPAX_RP: here10
   [enerjc] *** EXPAX_RP: here11
   [enerjc] *** EXPAX_RP: here13
   [enerjc] *** EXPAX_RP: here14
   [enerjc] *** EXPAX_RP: visitNewArray - here1
   [enerjc] *** EXPAX_RP: visitNewArray - here4 = false
   [enerjc] *** EXPAX_RP: visitNewArray - here1
   [enerjc] *** EXPAX_RP: visitNewArray - here4 = false
   [enerjc] *** EXPAX_RP: visitNewArray - here1
   [enerjc] *** EXPAX_RP: visitNewArray - here4 = false
   [enerjc] *** EXPAX_RP: visitNewArray - here1
   [enerjc] *** EXPAX_RP: visitNewArray - here4 = false
   [enerjc] *** EXPAX_RP: visitNewArray - here1
   [enerjc] *** EXPAX_RP: visitNewArray - here4 = false
   [enerjc] *** EXPAX_RP: visitNewArray - here1
   [enerjc] *** EXPAX_RP: visitNewArray - here4 = false
   [enerjc] *** EXPAX_RP: visitNewArray - here1
   [enerjc] *** EXPAX_RP: visitNewArray - here4 = false
   [enerjc] *** EXPAX_RP: visitNewArray - here1
   [enerjc] *** EXPAX_RP: visitNewArray - here4 = false
   [enerjc] *** EXPAX_RP: visitNewArray - here1
   [enerjc] *** EXPAX_RP: visitNewArray - here4 = false
   [enerjc] *** EXPAX_RP: here0
   [enerjc] *** EXPAX_RP: here1
   [enerjc] *** EXPAX_RP: here4
   [enerjc] *** EXPAX_RP: here5
   [enerjc] *** EXPAX_RP: here6 = 57
   [enerjc] *** EXPAX_RP: here7 = 0
   [enerjc] *** EXPAX_RP: here8 = false
   [enerjc] *** EXPAX_RP: here10
   [enerjc] *** EXPAX_RP: here11
   [enerjc] *** EXPAX_RP: here13
   [enerjc] *** EXPAX_RP: here14
   [enerjc] *** EXPAX_RP: here0
   [enerjc] *** EXPAX_RP: here1
   [enerjc] *** EXPAX_RP: here4
   [enerjc] *** EXPAX_RP: here5
   [enerjc] *** EXPAX_RP: here6 = 36
   [enerjc] *** EXPAX_RP: here7 = 0
   [enerjc] *** EXPAX_RP: here8 = false
   [enerjc] *** EXPAX_RP: here10
   [enerjc] *** EXPAX_RP: here11
   [enerjc] *** EXPAX_RP: here13
   [enerjc] *** EXPAX_RP: here14
   [enerjc] *** EXPAX_RP: visitNewArray - here1
   [enerjc] *** EXPAX_RP: visitNewArray - here4 = false
   [enerjc] *** EXPAX_RP: here0
   [enerjc] *** EXPAX_RP: here1
   [enerjc] *** EXPAX_RP: here4
   [enerjc] *** EXPAX_RP: here5
   [enerjc] *** EXPAX_RP: here6 = 57
   [enerjc] *** EXPAX_RP: here7 = 0
   [enerjc] *** EXPAX_RP: here8 = false
   [enerjc] *** EXPAX_RP: here10
   [enerjc] *** EXPAX_RP: here11
   [enerjc] *** EXPAX_RP: here13
   [enerjc] *** EXPAX_RP: here14
   [enerjc] *** EXPAX_RP: visitNewArray - here1
   [enerjc] *** EXPAX_RP: visitNewArray - here4 = false
   [enerjc] *** EXPAX_RP: visitNewArray - here1
   [enerjc] *** EXPAX_RP: visitNewArray - here4 = false
   [enerjc] *** EXPAX_RP: visitNewArray - here1
   [enerjc] *** EXPAX_RP: visitNewArray - here4 = false
   [enerjc] *** EXPAX_RP: here0
   [enerjc] *** EXPAX_RP: here1
   [enerjc] *** EXPAX_RP: here4
   [enerjc] *** EXPAX_RP: here5
   [enerjc] *** EXPAX_RP: here6 = 16
   [enerjc] *** EXPAX_RP: here7 = 0
   [enerjc] *** EXPAX_RP: here8 = false
   [enerjc] *** EXPAX_RP: here10
   [enerjc] *** EXPAX_RP: here11
   [enerjc] *** EXPAX_RP: here13
   [enerjc] *** EXPAX_RP: here14
   [enerjc] *** EXPAX_RP: visitNewArray - here1
   [enerjc] *** EXPAX_RP: visitNewArray - here2 = true
